%YAML 1.1
%TAG !u! tag:unity3d.com,2011:
--- !u!1 &2381720207775746703
GameObject:
  m_ObjectHideFlags: 0
  m_CorrespondingSourceObject: {fileID: 0}
  m_PrefabInstance: {fileID: 0}
  m_PrefabAsset: {fileID: 0}
  serializedVersion: 6
  m_Component:
  - component: {fileID: 948919016744527023}
  m_Layer: 0
  m_Name: TallGrass 1
  m_TagString: Untagged
  m_Icon: {fileID: 0}
  m_NavMeshLayer: 0
  m_StaticEditorFlags: 16
  m_IsActive: 1
--- !u!4 &948919016744527023
Transform:
  m_ObjectHideFlags: 0
  m_CorrespondingSourceObject: {fileID: 0}
  m_PrefabInstance: {fileID: 0}
  m_PrefabAsset: {fileID: 0}
  m_GameObject: {fileID: 2381720207775746703}
  m_LocalRotation: {x: -0, y: -0, z: -0, w: 1}
  m_LocalPosition: {x: -6.398181, y: 10, z: -61.908264}
  m_LocalScale: {x: 1, y: 1, z: 1}
  m_Children:
  - {fileID: 6117689467723071140}
  m_Father: {fileID: 0}
  m_RootOrder: 0
  m_LocalEulerAnglesHint: {x: 0, y: 0, z: 0}
--- !u!1001 &1269121084327826878
PrefabInstance:
  m_ObjectHideFlags: 0
  serializedVersion: 2
  m_Modification:
    m_TransformParent: {fileID: 948919016744527023}
    m_Modifications:
    - target: {fileID: -927199367670048503, guid: 88ac979a8039cb64c8fd464704b31620,
        type: 3}
      propertyPath: m_Name
      value: Model
      objectReference: {fileID: 0}
    - target: {fileID: -927199367670048503, guid: 88ac979a8039cb64c8fd464704b31620,
        type: 3}
      propertyPath: m_StaticEditorFlags
      value: 16
      objectReference: {fileID: 0}
    - target: {fileID: 3208509885366194652, guid: 88ac979a8039cb64c8fd464704b31620,
        type: 3}
      propertyPath: m_StaticEditorFlags
      value: 16
      objectReference: {fileID: 0}
    - target: {fileID: 6388676150620601371, guid: 88ac979a8039cb64c8fd464704b31620,
        type: 3}
      propertyPath: m_StaticEditorFlags
      value: 16
      objectReference: {fileID: 0}
    - target: {fileID: -7331915018369664188, guid: 88ac979a8039cb64c8fd464704b31620,
        type: 3}
      propertyPath: m_StaticEditorFlags
      value: 16
      objectReference: {fileID: 0}
    - target: {fileID: -5685248586382279667, guid: 88ac979a8039cb64c8fd464704b31620,
        type: 3}
      propertyPath: m_StaticEditorFlags
      value: 16
      objectReference: {fileID: 0}
    - target: {fileID: 4808322714387829797, guid: 88ac979a8039cb64c8fd464704b31620,
        type: 3}
      propertyPath: m_StaticEditorFlags
      value: 16
      objectReference: {fileID: 0}
    - target: {fileID: -1182410937007170190, guid: 88ac979a8039cb64c8fd464704b31620,
        type: 3}
      propertyPath: m_StaticEditorFlags
      value: 16
      objectReference: {fileID: 0}
    - target: {fileID: -4216859302048453862, guid: 88ac979a8039cb64c8fd464704b31620,
        type: 3}
      propertyPath: m_LocalPosition.x
      value: 0
      objectReference: {fileID: 0}
    - target: {fileID: -4216859302048453862, guid: 88ac979a8039cb64c8fd464704b31620,
        type: 3}
      propertyPath: m_LocalPosition.y
      value: 0
      objectReference: {fileID: 0}
    - target: {fileID: -4216859302048453862, guid: 88ac979a8039cb64c8fd464704b31620,
        type: 3}
      propertyPath: m_LocalPosition.z
      value: 0
      objectReference: {fileID: 0}
    - target: {fileID: -4216859302048453862, guid: 88ac979a8039cb64c8fd464704b31620,
        type: 3}
      propertyPath: m_LocalRotation.x
      value: -0
      objectReference: {fileID: 0}
    - target: {fileID: -4216859302048453862, guid: 88ac979a8039cb64c8fd464704b31620,
        type: 3}
      propertyPath: m_LocalRotation.y
      value: -0
      objectReference: {fileID: 0}
    - target: {fileID: -4216859302048453862, guid: 88ac979a8039cb64c8fd464704b31620,
        type: 3}
      propertyPath: m_LocalRotation.z
      value: -0
      objectReference: {fileID: 0}
    - target: {fileID: -4216859302048453862, guid: 88ac979a8039cb64c8fd464704b31620,
        type: 3}
      propertyPath: m_LocalRotation.w
      value: 1
      objectReference: {fileID: 0}
    - target: {fileID: -4216859302048453862, guid: 88ac979a8039cb64c8fd464704b31620,
        type: 3}
      propertyPath: m_RootOrder
      value: 0
      objectReference: {fileID: 0}
    - target: {fileID: -4216859302048453862, guid: 88ac979a8039cb64c8fd464704b31620,
        type: 3}
      propertyPath: m_LocalEulerAnglesHint.x
      value: 0
      objectReference: {fileID: 0}
    - target: {fileID: -4216859302048453862, guid: 88ac979a8039cb64c8fd464704b31620,
        type: 3}
      propertyPath: m_LocalEulerAnglesHint.y
      value: 0
      objectReference: {fileID: 0}
    - target: {fileID: -4216859302048453862, guid: 88ac979a8039cb64c8fd464704b31620,
        type: 3}
      propertyPath: m_LocalEulerAnglesHint.z
      value: 0
      objectReference: {fileID: 0}
    - target: {fileID: 1230861576671447837, guid: 88ac979a8039cb64c8fd464704b31620,
        type: 3}
      propertyPath: m_Materials.Array.data[0]
      value: 
      objectReference: {fileID: 2100000, guid: 397c919f7146ab248b633b116c533342, type: 2}
    - target: {fileID: -8599329993709352497, guid: 88ac979a8039cb64c8fd464704b31620,
        type: 3}
      propertyPath: m_Materials.Array.data[0]
      value: 
      objectReference: {fileID: 2100000, guid: 397c919f7146ab248b633b116c533342, type: 2}
    - target: {fileID: -5623325028386596162, guid: 88ac979a8039cb64c8fd464704b31620,
        type: 3}
      propertyPath: m_Materials.Array.data[0]
      value: 
      objectReference: {fileID: 2100000, guid: 397c919f7146ab248b633b116c533342, type: 2}
    - target: {fileID: 2908801091193212392, guid: 88ac979a8039cb64c8fd464704b31620,
        type: 3}
      propertyPath: m_Materials.Array.data[0]
      value: 
      objectReference: {fileID: 2100000, guid: 397c919f7146ab248b633b116c533342, type: 2}
    - target: {fileID: -3249356076818591798, guid: 88ac979a8039cb64c8fd464704b31620,
        type: 3}
      propertyPath: m_Materials.Array.data[0]
      value: 
      objectReference: {fileID: 2100000, guid: 397c919f7146ab248b633b116c533342, type: 2}
    - target: {fileID: -3580987561803490755, guid: 88ac979a8039cb64c8fd464704b31620,
        type: 3}
      propertyPath: m_Materials.Array.data[0]
      value: 
      objectReference: {fileID: 2100000, guid: 397c919f7146ab248b633b116c533342, type: 2}
    m_RemovedComponents: []
  m_SourcePrefab: {fileID: 100100000, guid: 88ac979a8039cb64c8fd464704b31620, type: 3}
--- !u!4 &6117689467723071140 stripped
Transform:
  m_CorrespondingSourceObject: {fileID: -4216859302048453862, guid: 88ac979a8039cb64c8fd464704b31620,
    type: 3}
  m_PrefabInstance: {fileID: 1269121084327826878}
  m_PrefabAsset: {fileID: 0}
