%YAML 1.1
%TAG !u! tag:unity3d.com,2011:
--- !u!114 &11400000
MonoBehaviour:
  m_ObjectHideFlags: 0
  m_CorrespondingSourceObject: {fileID: 0}
  m_PrefabInstance: {fileID: 0}
  m_PrefabAsset: {fileID: 0}
  m_GameObject: {fileID: 0}
  m_Enabled: 1
  m_EditorHideFlags: 0
  m_Script: {fileID: 11500000, guid: 889794c411054f7ca8e6fbdc6728c846, type: 3}
  m_Name: _UIButtonDatabase
  m_EditorClassIdentifier: 
  DatabaseType: 0
  CategoryNames:
  - Custom
  - Example
  - General
  - Settings Buttons
  - Controls
  - Store
  Categories:
  - {fileID: 11400000, guid: 40f9e81ff80114a47a3721228ba749ed, type: 2}
  - {fileID: 11400000, guid: 3cc313df93d45f44597c24490de10fe2, type: 2}
  - {fileID: 11400000, guid: 34a0cba12c229394b9e0932f28d9da1b, type: 2}
  - {fileID: 11400000, guid: efad6a8d38691634ab1f5550896fd328, type: 2}
  - {fileID: 11400000, guid: 3d3e781d61554bd40b73d997d6d103da, type: 2}
