%YAML 1.1
%TAG !u! tag:unity3d.com,2011:
--- !u!21 &2100000
Material:
  serializedVersion: 6
  m_ObjectHideFlags: 0
  m_CorrespondingSourceObject: {fileID: 0}
  m_PrefabInstance: {fileID: 0}
  m_PrefabAsset: {fileID: 0}
  m_Name: Slash_Spin
  m_Shader: {fileID: 4800000, guid: b34ae46034857b14492d382e4491d69e, type: 3}
  m_ShaderKeywords: 
  m_LightmapFlags: 4
  m_EnableInstancingVariants: 0
  m_DoubleSidedGI: 0
  m_CustomRenderQueue: -1
  stringTagMap: {}
  disabledShaderPasses: []
  m_SavedProperties:
    serializedVersion: 3
    m_TexEnvs:
    - _BumpMap:
        m_Texture: {fileID: 0}
        m_Scale: {x: 1, y: 1}
        m_Offset: {x: 0, y: 0}
    - _DetailAlbedoMap:
        m_Texture: {fileID: 0}
        m_Scale: {x: 1, y: 1}
        m_Offset: {x: 0, y: 0}
    - _DetailMask:
        m_Texture: {fileID: 0}
        m_Scale: {x: 1, y: 1}
        m_Offset: {x: 0, y: 0}
    - _DetailNormalMap:
        m_Texture: {fileID: 0}
        m_Scale: {x: 1, y: 1}
        m_Offset: {x: 0, y: 0}
    - _DisplacementGuide:
        m_Texture: {fileID: 0}
        m_Scale: {x: 1, y: 1}
        m_Offset: {x: 0, y: 0}
    - _DistortionGuide:
        m_Texture: {fileID: 2800000, guid: 302951faffe230848aa0d3df7bb70faa, type: 3}
        m_Scale: {x: 1, y: 1}
        m_Offset: {x: 0, y: 0}
    - _EmissionMap:
        m_Texture: {fileID: 0}
        m_Scale: {x: 1, y: 1}
        m_Offset: {x: 0, y: 0}
    - _GradientMap:
        m_Texture: {fileID: 2800000, guid: 773f45fa348750c4c952a16bff5958c6, type: 3}
        m_Scale: {x: 1, y: 1}
        m_Offset: {x: 0, y: 0}
    - _MainTex:
        m_Texture: {fileID: 2800000, guid: 40d492704c560b84181bfbdb88aec7b0, type: 3}
        m_Scale: {x: 1, y: 1}
        m_Offset: {x: 0, y: 0}
    - _MetallicGlossMap:
        m_Texture: {fileID: 0}
        m_Scale: {x: 1, y: 1}
        m_Offset: {x: 0, y: 0}
    - _OcclusionMap:
        m_Texture: {fileID: 0}
        m_Scale: {x: 1, y: 1}
        m_Offset: {x: 0, y: 0}
    - _ParallaxMap:
        m_Texture: {fileID: 0}
        m_Scale: {x: 1, y: 1}
        m_Offset: {x: 0, y: 0}
    - _SecondaryTex:
        m_Texture: {fileID: 2800000, guid: 3e1ec415b9b6a164a96bfdc64e5c8fff, type: 3}
        m_Scale: {x: 1, y: 1}
        m_Offset: {x: 0, y: 0}
    - _SpecGlossMap:
        m_Texture: {fileID: 0}
        m_Scale: {x: 1, y: 1}
        m_Offset: {x: 0, y: 0}
    m_Floats:
    - _BANDING: 0
    - _Banding: 0
    - _Bands: 3
    - _BumpScale: 1
    - _BurnSize: 0
    - _CIRCLEMASK: 0
    - _CircleMask: 0
    - _ClipAmount: 0
    - _ClipSoftness: 0.496
    - _Contrast: 1
    - _CullMode: 0
    - _Culling: 2
    - _Cutoff: 0
    - _CutoffSoftness: 0
    - _DetailNormalMapScale: 1
    - _DisplacementAmount: 0
    - _DistortionAmount: 0
    - _DistortionPanningSpeedX: 0
    - _DistortionPanningSpeedY: 0
    - _DstBlend: 0
    - _EdgeSize: 0.252
    - _FresnelIntensity: 0
    - _FresnelPower: 0
    - _GlossMapScale: 1
    - _Glossiness: 0.5
    - _GlossyReflections: 1
    - _HASSECONDARYTEX: 0
    - _InnerRadius: 0
    - _IntersectionSize: 0
    - _IntersectionThresholdMax: 1
    - _InvFade: 1
    - _MainTexPanningSpeedX: 0
    - _MainTexPanningSpeedY: 0
    - _Metallic: 0
    - _Mode: 0
    - _MultiplyByMainColor: 0
    - _OcclusionStrength: 1
    - _OuterRadius: 0.5
    - _Parallax: 0.02
    - _PolarCoords: 0
    - _Power: 1
    - _RECTMASK: 0
    - _RectHeight: 0
    - _RectMask: 0
    - _RectMaskCutoff: 0
    - _RectSmoothness: 0
    - _RectSmothness: 0
    - _RectWidth: 0
    - _SOFTBLEND: 0
    - _SecondTex: 0
    - _SecondaryPanningSpeedX: 0
    - _SecondaryPanningSpeedY: 0
    - _Smoothness: 0.2
    - _SmoothnessTextureChannel: 0
    - _SoftBlend: 0
    - _SpecularHighlights: 1
    - _SrcBlend: 1
    - _USEDEPTH: 0
    - _USEFRESNEL: 0
    - _USEVERTEXOFFSET: 0
    - _USE_POLAR_COORDINATES: 0
    - _UVSec: 0
    - _VertexOffset: 0
    - _VertexOffsetAmount: 0
    - _ZWrite: 1
    m_Colors:
    - _BurnCol: {r: 1, g: 1, b: 1, a: 1}
    - _Color: {r: 2.9960785, g: 2.9960785, b: 2.9960785, a: 0.78431374}
    - _EdgeColor: {r: 1, g: 1, b: 1, a: 1}
    - _EmissionColor: {r: 0, g: 0, b: 0, a: 1}
    - _FresnelColor: {r: 1, g: 1, b: 1, a: 1}
    - _IntersectionColor: {r: 1, g: 1, b: 1, a: 1}
    - _PanningSpeed: {r: 0, g: 0, b: 0, a: 0}
    - _SecondaryPanningSpeed: {r: 0, g: 0, b: 0, a: 0}
    - _TintColor: {r: 1, g: 1, b: 1, a: 0.5}
