%YAML 1.1
%TAG !u! tag:unity3d.com,2011:
--- !u!1001 &1926191476916959661
PrefabInstance:
  m_ObjectHideFlags: 0
  serializedVersion: 2
  m_Modification:
    m_TransformParent: {fileID: 0}
    m_Modifications:
    - target: {fileID: 6453667510473252528, guid: 314dc952573b1bc47b910d96670077fc,
        type: 3}
      propertyPath: m_Name
      value: Tank Cursed Variant
      objectReference: {fileID: 0}
    - target: {fileID: 6453667510473252528, guid: 314dc952573b1bc47b910d96670077fc,
        type: 3}
      propertyPath: m_Layer
      value: 27
      objectReference: {fileID: 0}
    - target: {fileID: 6453667510473252527, guid: 314dc952573b1bc47b910d96670077fc,
        type: 3}
      propertyPath: m_LocalPosition.x
      value: 2.6422992
      objectReference: {fileID: 0}
    - target: {fileID: 6453667510473252527, guid: 314dc952573b1bc47b910d96670077fc,
        type: 3}
      propertyPath: m_LocalPosition.y
      value: 10
      objectReference: {fileID: 0}
    - target: {fileID: 6453667510473252527, guid: 314dc952573b1bc47b910d96670077fc,
        type: 3}
      propertyPath: m_LocalPosition.z
      value: -19.668283
      objectReference: {fileID: 0}
    - target: {fileID: 6453667510473252527, guid: 314dc952573b1bc47b910d96670077fc,
        type: 3}
      propertyPath: m_LocalRotation.x
      value: 0
      objectReference: {fileID: 0}
    - target: {fileID: 6453667510473252527, guid: 314dc952573b1bc47b910d96670077fc,
        type: 3}
      propertyPath: m_LocalRotation.y
      value: 0
      objectReference: {fileID: 0}
    - target: {fileID: 6453667510473252527, guid: 314dc952573b1bc47b910d96670077fc,
        type: 3}
      propertyPath: m_LocalRotation.z
      value: 0
      objectReference: {fileID: 0}
    - target: {fileID: 6453667510473252527, guid: 314dc952573b1bc47b910d96670077fc,
        type: 3}
      propertyPath: m_LocalRotation.w
      value: 1
      objectReference: {fileID: 0}
    - target: {fileID: 6453667510473252527, guid: 314dc952573b1bc47b910d96670077fc,
        type: 3}
      propertyPath: m_RootOrder
      value: 0
      objectReference: {fileID: 0}
    - target: {fileID: 6453667510473252527, guid: 314dc952573b1bc47b910d96670077fc,
        type: 3}
      propertyPath: m_LocalEulerAnglesHint.x
      value: 0
      objectReference: {fileID: 0}
    - target: {fileID: 6453667510473252527, guid: 314dc952573b1bc47b910d96670077fc,
        type: 3}
      propertyPath: m_LocalEulerAnglesHint.y
      value: 0
      objectReference: {fileID: 0}
    - target: {fileID: 6453667510473252527, guid: 314dc952573b1bc47b910d96670077fc,
        type: 3}
      propertyPath: m_LocalEulerAnglesHint.z
      value: 0
      objectReference: {fileID: 0}
    - target: {fileID: 6453667510473252529, guid: 314dc952573b1bc47b910d96670077fc,
        type: 3}
      propertyPath: startCursed
      value: 0
      objectReference: {fileID: 0}
    - target: {fileID: 6453667510473252529, guid: 314dc952573b1bc47b910d96670077fc,
        type: 3}
      propertyPath: state
      value: 1
      objectReference: {fileID: 0}
    - target: {fileID: 6453667510473252529, guid: 314dc952573b1bc47b910d96670077fc,
        type: 3}
      propertyPath: behaviour
      value: 2
      objectReference: {fileID: 0}
    - target: {fileID: 1849336930684386380, guid: 314dc952573b1bc47b910d96670077fc,
        type: 3}
      propertyPath: m_Layer
      value: 27
      objectReference: {fileID: 0}
    - target: {fileID: 307908434, guid: 314dc952573b1bc47b910d96670077fc, type: 3}
      propertyPath: m_Layer
      value: 27
      objectReference: {fileID: 0}
    - target: {fileID: 3239171726999370876, guid: 314dc952573b1bc47b910d96670077fc,
        type: 3}
      propertyPath: m_Layer
      value: 27
      objectReference: {fileID: 0}
    - target: {fileID: 6131425692886544173, guid: 314dc952573b1bc47b910d96670077fc,
        type: 3}
      propertyPath: m_Layer
      value: 27
      objectReference: {fileID: 0}
    - target: {fileID: 5400088288277396579, guid: 314dc952573b1bc47b910d96670077fc,
        type: 3}
      propertyPath: m_Layer
      value: 27
      objectReference: {fileID: 0}
    - target: {fileID: 307908439, guid: 314dc952573b1bc47b910d96670077fc, type: 3}
      propertyPath: m_Mesh
      value: 
      objectReference: {fileID: 0}
    - target: {fileID: 7382147070358596487, guid: 314dc952573b1bc47b910d96670077fc,
        type: 3}
      propertyPath: m_Layer
      value: 27
      objectReference: {fileID: 0}
    - target: {fileID: 3270449812224606064, guid: 314dc952573b1bc47b910d96670077fc,
        type: 3}
      propertyPath: m_Materials.Array.data[0]
      value: 
      objectReference: {fileID: 2100000, guid: 032fa5a25429b3c42be0e50be83eefcb, type: 2}
    m_RemovedComponents: []
  m_SourcePrefab: {fileID: 100100000, guid: 314dc952573b1bc47b910d96670077fc, type: 3}
