%YAML 1.1
%TAG !u! tag:unity3d.com,2011:
--- !u!1001 &4665739125388172711
PrefabInstance:
  m_ObjectHideFlags: 0
  serializedVersion: 2
  m_Modification:
    m_TransformParent: {fileID: 0}
    m_Modifications:
    - target: {fileID: 114870029540723121, guid: d7a93589240d9814782bb4b21b6c7e42,
        type: 3}
      propertyPath: m_Name
      value: Rock
      objectReference: {fileID: 0}
    - target: {fileID: 7430675916239178349, guid: d7a93589240d9814782bb4b21b6c7e42,
        type: 3}
      propertyPath: m_LocalPosition.x
      value: -14.63
      objectReference: {fileID: 0}
    - target: {fileID: 7430675916239178349, guid: d7a93589240d9814782bb4b21b6c7e42,
        type: 3}
      propertyPath: m_LocalPosition.y
      value: 9.95
      objectReference: {fileID: 0}
    - target: {fileID: 7430675916239178349, guid: d7a93589240d9814782bb4b21b6c7e42,
        type: 3}
      propertyPath: m_LocalPosition.z
      value: -57.93
      objectReference: {fileID: 0}
    - target: {fileID: 7430675916239178349, guid: d7a93589240d9814782bb4b21b6c7e42,
        type: 3}
      propertyPath: m_LocalRotation.x
      value: -0
      objectReference: {fileID: 0}
    - target: {fileID: 7430675916239178349, guid: d7a93589240d9814782bb4b21b6c7e42,
        type: 3}
      propertyPath: m_LocalRotation.y
      value: -0
      objectReference: {fileID: 0}
    - target: {fileID: 7430675916239178349, guid: d7a93589240d9814782bb4b21b6c7e42,
        type: 3}
      propertyPath: m_LocalRotation.z
      value: -0
      objectReference: {fileID: 0}
    - target: {fileID: 7430675916239178349, guid: d7a93589240d9814782bb4b21b6c7e42,
        type: 3}
      propertyPath: m_LocalRotation.w
      value: 1
      objectReference: {fileID: 0}
    - target: {fileID: 7430675916239178349, guid: d7a93589240d9814782bb4b21b6c7e42,
        type: 3}
      propertyPath: m_RootOrder
      value: 0
      objectReference: {fileID: 0}
    - target: {fileID: 7430675916239178349, guid: d7a93589240d9814782bb4b21b6c7e42,
        type: 3}
      propertyPath: m_LocalEulerAnglesHint.x
      value: 0
      objectReference: {fileID: 0}
    - target: {fileID: 7430675916239178349, guid: d7a93589240d9814782bb4b21b6c7e42,
        type: 3}
      propertyPath: m_LocalEulerAnglesHint.y
      value: 0
      objectReference: {fileID: 0}
    - target: {fileID: 7430675916239178349, guid: d7a93589240d9814782bb4b21b6c7e42,
        type: 3}
      propertyPath: m_LocalEulerAnglesHint.z
      value: 0
      objectReference: {fileID: 0}
    - target: {fileID: 5906370580659606134, guid: d7a93589240d9814782bb4b21b6c7e42,
        type: 3}
      propertyPath: m_Mesh
      value: 
      objectReference: {fileID: -1537272656954796486, guid: c990cee5bfdf78d4abee66a055790b1b,
        type: 3}
    - target: {fileID: 5283776929373451874, guid: d7a93589240d9814782bb4b21b6c7e42,
        type: 3}
      propertyPath: m_Mesh
      value: 
      objectReference: {fileID: -1537272656954796486, guid: c990cee5bfdf78d4abee66a055790b1b,
        type: 3}
    m_RemovedComponents: []
  m_SourcePrefab: {fileID: 100100000, guid: d7a93589240d9814782bb4b21b6c7e42, type: 3}
