%YAML 1.1
%TAG !u! tag:unity3d.com,2011:
--- !u!21 &2100000
Material:
  serializedVersion: 6
  m_ObjectHideFlags: 0
  m_CorrespondingSourceObject: {fileID: 0}
  m_PrefabInstance: {fileID: 0}
  m_PrefabAsset: {fileID: 0}
  m_Name: TankShell_Intersection
  m_Shader: {fileID: 4800000, guid: b34ae46034857b14492d382e4491d69e, type: 3}
  m_ShaderKeywords: _KEYWORD0_ON _USEDEPTH_ON _USE_FRESNEL_ON
  m_LightmapFlags: 4
  m_EnableInstancingVariants: 0
  m_DoubleSidedGI: 0
  m_CustomRenderQueue: -1
  stringTagMap: {}
  disabledShaderPasses: []
  m_SavedProperties:
    serializedVersion: 3
    m_TexEnvs:
    - _BumpMap:
        m_Texture: {fileID: 0}
        m_Scale: {x: 1, y: 1}
        m_Offset: {x: 0, y: 0}
    - _DetailAlbedoMap:
        m_Texture: {fileID: 0}
        m_Scale: {x: 1, y: 1}
        m_Offset: {x: 0, y: 0}
    - _DetailMask:
        m_Texture: {fileID: 0}
        m_Scale: {x: 1, y: 1}
        m_Offset: {x: 0, y: 0}
    - _DetailNormalMap:
        m_Texture: {fileID: 0}
        m_Scale: {x: 1, y: 1}
        m_Offset: {x: 0, y: 0}
    - _DistortionGuide:
        m_Texture: {fileID: 2800000, guid: 302951faffe230848aa0d3df7bb70faa, type: 3}
        m_Scale: {x: 1, y: 1}
        m_Offset: {x: 0, y: 0}
    - _EmissionMap:
        m_Texture: {fileID: 0}
        m_Scale: {x: 1, y: 1}
        m_Offset: {x: 0, y: 0}
    - _GradientMap:
        m_Texture: {fileID: 0}
        m_Scale: {x: 1, y: 1}
        m_Offset: {x: 0, y: 0}
    - _MainTex:
        m_Texture: {fileID: 0}
        m_Scale: {x: 1, y: 1}
        m_Offset: {x: 0, y: 0}
    - _MetallicGlossMap:
        m_Texture: {fileID: 0}
        m_Scale: {x: 1, y: 1}
        m_Offset: {x: 0, y: 0}
    - _OcclusionMap:
        m_Texture: {fileID: 0}
        m_Scale: {x: 1, y: 1}
        m_Offset: {x: 0, y: 0}
    - _ParallaxMap:
        m_Texture: {fileID: 0}
        m_Scale: {x: 1, y: 1}
        m_Offset: {x: 0, y: 0}
    - _SecondaryTex:
        m_Texture: {fileID: 2800000, guid: def3a1f71349c464e9f344e92251e3fd, type: 3}
        m_Scale: {x: 1, y: 1}
        m_Offset: {x: 0, y: 0}
    m_Floats:
    - _BANDING: 0
    - _Bands: 3
    - _BumpScale: 1
    - _CIRCLEMASK: 0
    - _ClipAmount: 0
    - _ClipSoftness: 0
    - _Contrast: 1
    - _CullMode: 0
    - _Cutoff: 0.5
    - _DetailNormalMapScale: 1
    - _DistortionAmount: 0.02
    - _DistortionPanningSpeedX: 0
    - _DistortionPanningSpeedY: 0
    - _DstBlend: 0
    - _EdgeSize: 0
    - _Float3: 1.53
    - _FresnelIntensity: 0.2
    - _FresnelPower: 8.47
    - _GlossMapScale: 1
    - _Glossiness: 0.5
    - _GlossyReflections: 1
    - _HASSECONDARYTEX: 0
    - _InnerRadius: -0.41
    - _IntersectionSize: 0.05
    - _IntersectionThresholdMax: 5
    - _Keyword0: 1
    - _MainTexPanningSpeedX: 0
    - _MainTexPanningSpeedY: 0
    - _Metallic: 0
    - _Mode: 0
    - _MultiplyByMainColor: 0
    - _OcclusionStrength: 1
    - _OuterRadius: 0
    - _Parallax: 0.02
    - _Power: 1
    - _RECTMASK: 0
    - _RectHeight: 4.95
    - _RectMaskCutoff: 0.28
    - _RectSmothness: 0
    - _RectWidth: 22.23
    - _SOFTBLEND: 0
    - _SecondaryPanningSpeedX: 0
    - _SecondaryPanningSpeedY: 0
    - _Smoothness: 0.321
    - _SmoothnessTextureChannel: 0
    - _SpecularHighlights: 1
    - _SrcBlend: 1
    - _ToggleSwitch0: 0
    - _USEDEPTH: 1
    - _USEFRESNEL: 0
    - _USEVERTEXOFFSET: 0
    - _USE_FRESNEL: 1
    - _USE_POLAR_COORDINATES: 0
    - _UVSec: 0
    - _VertexOffsetAmount: 0
    - _ZWrite: 1
    m_Colors:
    - _Color: {r: 1, g: 0.95164835, b: 0.6, a: 0}
    - _Color0: {r: 0, g: 0, b: 0, a: 0}
    - _EdgeColor: {r: 1, g: 1, b: 1, a: 1}
    - _EmissionColor: {r: 0, g: 0, b: 0, a: 1}
    - _FresnelColor: {r: 4, g: 4, b: 4, a: 1}
    - _IntersectionColor: {r: 1.4142135, g: 1.4142135, b: 1.4142135, a: 1}
