%YAML 1.1
%TAG !u! tag:unity3d.com,2011:
--- !u!21 &2100000
Material:
  serializedVersion: 6
  m_ObjectHideFlags: 0
  m_CorrespondingSourceObject: {fileID: 0}
  m_PrefabInstance: {fileID: 0}
  m_PrefabAsset: {fileID: 0}
  m_Name: vfx_MS_mat_lensFlare01_I3
  m_Shader: {fileID: 4800000, guid: b34ae46034857b14492d382e4491d69e, type: 3}
  m_ShaderKeywords: _SOFTBLEND_ON
  m_LightmapFlags: 4
  m_EnableInstancingVariants: 0
  m_DoubleSidedGI: 0
  m_CustomRenderQueue: -1
  stringTagMap: {}
  disabledShaderPasses: []
  m_SavedProperties:
    serializedVersion: 3
    m_TexEnvs:
    - _BumpMap:
        m_Texture: {fileID: 0}
        m_Scale: {x: 1, y: 1}
        m_Offset: {x: 0, y: 0}
    - _DetailAlbedoMap:
        m_Texture: {fileID: 0}
        m_Scale: {x: 1, y: 1}
        m_Offset: {x: 0, y: 0}
    - _DetailMask:
        m_Texture: {fileID: 0}
        m_Scale: {x: 1, y: 1}
        m_Offset: {x: 0, y: 0}
    - _DetailNormalMap:
        m_Texture: {fileID: 0}
        m_Scale: {x: 1, y: 1}
        m_Offset: {x: 0, y: 0}
    - _DistortionGuide:
        m_Texture: {fileID: 2800000, guid: 302951faffe230848aa0d3df7bb70faa, type: 3}
        m_Scale: {x: 1, y: 1}
        m_Offset: {x: 0, y: 0}
    - _EmissionMap:
        m_Texture: {fileID: 0}
        m_Scale: {x: 1, y: 1}
        m_Offset: {x: 0, y: 0}
    - _GradientMap:
        m_Texture: {fileID: 0}
        m_Scale: {x: 1, y: 1}
        m_Offset: {x: 0, y: 0}
    - _MainTex:
        m_Texture: {fileID: 2800000, guid: f99e31cee6209fd479365be4257e5835, type: 3}
        m_Scale: {x: 1, y: 1}
        m_Offset: {x: 0, y: 0}
    - _MetallicGlossMap:
        m_Texture: {fileID: 0}
        m_Scale: {x: 1, y: 1}
        m_Offset: {x: 0, y: 0}
    - _OcclusionMap:
        m_Texture: {fileID: 0}
        m_Scale: {x: 1, y: 1}
        m_Offset: {x: 0, y: 0}
    - _ParallaxMap:
        m_Texture: {fileID: 0}
        m_Scale: {x: 1, y: 1}
        m_Offset: {x: 0, y: 0}
    - _SecondaryTex:
        m_Texture: {fileID: 2800000, guid: 202808d16395d6a43be61701e50984be, type: 3}
        m_Scale: {x: 1, y: 1}
        m_Offset: {x: 0, y: 0}
    m_Floats:
    - _BANDING: 0
    - _Bands: 3
    - _BumpScale: 1
    - _CIRCLEMASK: 0
    - _ClipAmount: 0
    - _ClipSoftness: 0.01
    - _Contrast: 1
    - _CullMode: 2
    - _Cutoff: 0.5
    - _DetailNormalMapScale: 1
    - _DistortionAmount: 0
    - _DistortionPanningSpeedX: 0
    - _DistortionPanningSpeedY: 0
    - _DstBlend: 0
    - _EdgeSize: 0
    - _FresnelIntensity: 0.001
    - _FresnelPower: 0
    - _GlossMapScale: 1
    - _Glossiness: 0.5
    - _GlossyReflections: 1
    - _HASSECONDARYTEX: 0
    - _InnerRadius: -1
    - _IntersectionSize: 1
    - _IntersectionThresholdMax: 5
    - _MainTexPanningSpeedX: 0
    - _MainTexPanningSpeedY: 0
    - _Metallic: 0
    - _Mode: 0
    - _MultiplyByMainColor: 0
    - _OcclusionStrength: 1
    - _OuterRadius: 0.089
    - _Parallax: 0.02
    - _Power: 1
    - _RECTMASK: 0
    - _RectHeight: 0
    - _RectMaskCutoff: 0
    - _RectSmothness: 0
    - _RectWidth: 0
    - _SOFTBLEND: 1
    - _SecondaryPanningSpeedX: 0
    - _SecondaryPanningSpeedY: 0
    - _Smoothness: 0.624
    - _SmoothnessTextureChannel: 0
    - _SpecularHighlights: 1
    - _SrcBlend: 1
    - _USEDEPTH: 0
    - _USEFRESNEL: 0
    - _USEVERTEXOFFSET: 0
    - _USE_POLAR_COORDINATES: 0
    - _UVSec: 0
    - _VertexOffsetAmount: 0
    - _ZWrite: 1
    m_Colors:
    - _Color: {r: 5.992157, g: 5.992157, b: 5.992157, a: 1}
    - _EdgeColor: {r: 155.74858, g: 155.74858, b: 155.74858, a: 1}
    - _EmissionColor: {r: 0, g: 0, b: 0, a: 1}
    - _FresnelColor: {r: 1, g: 0.42326775, b: 0.084376216, a: 1}
    - _IntersectionColor: {r: 1.0592737, g: 1.0592737, b: 1.0592737, a: 1}
