%YAML 1.1
%TAG !u! tag:unity3d.com,2011:
--- !u!21 &2100000
Material:
  serializedVersion: 6
  m_ObjectHideFlags: 0
  m_CorrespondingSourceObject: {fileID: 0}
  m_PrefabInstance: {fileID: 0}
  m_PrefabAsset: {fileID: 0}
  m_Name: CelWithRim02__StylSurf_Single_ExCel_Spec_Rim
  m_Shader: {fileID: 4800000, guid: f7e38193b7f064d7380403618fd8b69e, type: 3}
  m_ShaderKeywords: DR_GRADIENT_ON _CELPRIMARYMODE_SINGLE _FLAT_RIM_ENABLED _FLAT_SHADOWS_ENABLED
    _FLAT_SPECULAR_ENABLED _TEXTUREBLENDINGMODE_MULTIPLY _UNITYSHADOWMODE_NONE
  m_LightmapFlags: 4
  m_EnableInstancingVariants: 0
  m_DoubleSidedGI: 0
  m_CustomRenderQueue: -1
  stringTagMap: {}
  disabledShaderPasses: []
  m_SavedProperties:
    serializedVersion: 3
    m_TexEnvs:
    - _BumpMap:
        m_Texture: {fileID: 2800000, guid: 8f7a4b0e22176114c9bae4ba1224e3dd, type: 3}
        m_Scale: {x: 1, y: 1}
        m_Offset: {x: 0, y: 0}
    - _CelCurveTexture:
        m_Texture: {fileID: 0}
        m_Scale: {x: 1, y: 1}
        m_Offset: {x: 0, y: 0}
    - _CelStepTexture:
        m_Texture: {fileID: 0}
        m_Scale: {x: 1, y: 1}
        m_Offset: {x: 0, y: 0}
    - _DetailAlbedoMap:
        m_Texture: {fileID: 0}
        m_Scale: {x: 0, y: 0}
        m_Offset: {x: 0, y: 0}
    - _DetailMask:
        m_Texture: {fileID: 0}
        m_Scale: {x: 1, y: 1}
        m_Offset: {x: 0, y: 0}
    - _DetailNormalMap:
        m_Texture: {fileID: 0}
        m_Scale: {x: 1, y: 1}
        m_Offset: {x: 0, y: 0}
    - _EmissionMap:
        m_Texture: {fileID: 0}
        m_Scale: {x: 30, y: 15}
        m_Offset: {x: 1.5, y: 1.7}
    - _MainTex:
        m_Texture: {fileID: 0}
        m_Scale: {x: 1, y: 1}
        m_Offset: {x: 0, y: 0}
    - _MetallicGlossMap:
        m_Texture: {fileID: 0}
        m_Scale: {x: 1, y: 1}
        m_Offset: {x: 0, y: 0}
    - _OcclusionMap:
        m_Texture: {fileID: 0}
        m_Scale: {x: 1, y: 1}
        m_Offset: {x: 0, y: 0}
    - _ParallaxMap:
        m_Texture: {fileID: 0}
        m_Scale: {x: 1, y: 1}
        m_Offset: {x: 0, y: 0}
    m_Floats:
    - _BumpScale: 1
    - _CelExtraEnabled: 0
    - _CelNumSteps: 3
    - _CelPrimaryMode: 1
    - _Cutoff: 0.5
    - _DetailNormalMapScale: 1
    - _DstBlend: 0
    - _FlatRimAmount: 0.5
    - _FlatRimEdgeSmoothness: 0.006
    - _FlatRimEnabled: 1
    - _FlatRimLightAlign: 0
    - _FlatRimSize: 0.235
    - _FlatShadowsEnabled: 1
    - _FlatSmoothness: 0.362
    - _FlatSpecularEdgeSmoothness: 0.11
    - _FlatSpecularEnabled: 1
    - _FlatSpecularSize: 0.151
    - _FlatSpecularSmoothness: 0.5
    - _Flatness: 1
    - _FlatnessExtra: 1
    - _FlatnessSecondary: 1
    - _GlossMapScale: 1
    - _Glossiness: 0
    - _GlossyReflections: 1
    - _GradientAngle: 0
    - _GradientBottom: 0
    - _GradientCenterX: 0
    - _GradientCenterY: 5.1
    - _GradientEnabled: 1
    - _GradientEnd: 0.55
    - _GradientSize: 16.74
    - _GradientStart: 1.17
    - _GradientTop: 10
    - _LightContribution: 0.5
    - _Metallic: 0
    - _Mode: 0
    - _OcclusionStrength: 1
    - _OutlineDepthOffset: 0
    - _OutlineWidth: 2
    - _OverrideShadows: 1
    - _OverrideShadowsEnabled: 1
    - _Parallax: 0.02
    - _RimEnabled: 0
    - _SecondaryColor: 1
    - _SecondaryColorEnabled: 1
    - _SelfShadingSize: 0.61
    - _SelfShadingSizeExtra: 0.48
    - _ShadowEdgeSize: 0
    - _ShadowEdgeSizeExtra: 0
    - _ShadowEdgeSmoothness: 0.01
    - _ShadowFalloff: 0.01
    - _SmoothnessTextureChannel: 0
    - _SpecularEnabled: 0
    - _SpecularHighlights: 1
    - _SrcBlend: 1
    - _TextureBlendingMode: 0
    - _TextureImpact: 1
    - _UVSec: 0
    - _UnityShadowMode: 0
    - _UnityShadowPower: 0.2
    - _UnityShadowSharpness: 1
    - _VertexColorsEnabled: 0
    - _ZWrite: 1
    m_Colors:
    - _Color: {r: 0.7924528, g: 0.7924528, b: 0.7924528, a: 1}
    - _ColorCelShadow: {r: 0.38581347, g: 0.38787434, b: 0.9622642, a: 1}
    - _ColorDim: {r: 0.5660378, g: 0.5660378, b: 0.5660378, a: 1}
    - _ColorDimCurve: {r: 0.85, g: 0.85, b: 0.85, a: 0.85}
    - _ColorDimExtra: {r: 0.33962262, g: 0.33962262, b: 0.33962262, a: 1}
    - _ColorDimSteps: {r: 0.85, g: 0.85, b: 0.85, a: 0.85}
    - _ColorGradient: {r: 1, g: 0.5506037, b: 0, a: 1}
    - _ColorSecondary: {r: 1, g: 0.55879205, b: 0, a: 1}
    - _ColorShadow: {r: 0.5, g: 0.5, b: 0.5, a: 1}
    - _ColorShadows: {r: 0.37835297, g: 0.4602353, b: 0.72, a: 1}
    - _EmissionColor: {r: 4.9245777, g: 0, b: 0, a: 1}
    - _FlatRimColor: {r: 0, g: 0, b: 0, a: 1}
    - _FlatSpecularColor: {r: 1, g: 1, b: 1, a: 1}
    - _OutlineColor: {r: 0, g: 0, b: 0, a: 1}
    - _UnityShadowColor: {r: 0.65, g: 0.65, b: 0.65, a: 1}
