%YAML 1.1
%TAG !u! tag:unity3d.com,2011:
--- !u!1001 &5973095711642363171
PrefabInstance:
  m_ObjectHideFlags: 0
  serializedVersion: 2
  m_Modification:
    m_TransformParent: {fileID: 0}
    m_Modifications:
    - target: {fileID: 2383259583373823201, guid: fa21cb0b4490f1940bf3b270569b611a,
        type: 3}
      propertyPath: m_Name
      value: Door Variant 1
      objectReference: {fileID: 0}
    - target: {fileID: 2383259583373823202, guid: fa21cb0b4490f1940bf3b270569b611a,
        type: 3}
      propertyPath: m_LocalPosition.x
      value: 8.1
      objectReference: {fileID: 0}
    - target: {fileID: 2383259583373823202, guid: fa21cb0b4490f1940bf3b270569b611a,
        type: 3}
      propertyPath: m_LocalPosition.y
      value: 10
      objectReference: {fileID: 0}
    - target: {fileID: 2383259583373823202, guid: fa21cb0b4490f1940bf3b270569b611a,
        type: 3}
      propertyPath: m_LocalPosition.z
      value: 113.8
      objectReference: {fileID: 0}
    - target: {fileID: 2383259583373823202, guid: fa21cb0b4490f1940bf3b270569b611a,
        type: 3}
      propertyPath: m_LocalRotation.x
      value: -0
      objectReference: {fileID: 0}
    - target: {fileID: 2383259583373823202, guid: fa21cb0b4490f1940bf3b270569b611a,
        type: 3}
      propertyPath: m_LocalRotation.y
      value: 1
      objectReference: {fileID: 0}
    - target: {fileID: 2383259583373823202, guid: fa21cb0b4490f1940bf3b270569b611a,
        type: 3}
      propertyPath: m_LocalRotation.z
      value: -0
      objectReference: {fileID: 0}
    - target: {fileID: 2383259583373823202, guid: fa21cb0b4490f1940bf3b270569b611a,
        type: 3}
      propertyPath: m_LocalRotation.w
      value: 0.0000006258487
      objectReference: {fileID: 0}
    - target: {fileID: 2383259583373823202, guid: fa21cb0b4490f1940bf3b270569b611a,
        type: 3}
      propertyPath: m_RootOrder
      value: 0
      objectReference: {fileID: 0}
    - target: {fileID: 2383259583373823202, guid: fa21cb0b4490f1940bf3b270569b611a,
        type: 3}
      propertyPath: m_LocalEulerAnglesHint.x
      value: 0
      objectReference: {fileID: 0}
    - target: {fileID: 2383259583373823202, guid: fa21cb0b4490f1940bf3b270569b611a,
        type: 3}
      propertyPath: m_LocalEulerAnglesHint.y
      value: 0
      objectReference: {fileID: 0}
    - target: {fileID: 2383259583373823202, guid: fa21cb0b4490f1940bf3b270569b611a,
        type: 3}
      propertyPath: m_LocalEulerAnglesHint.z
      value: 0
      objectReference: {fileID: 0}
    - target: {fileID: 2383259582323851935, guid: fa21cb0b4490f1940bf3b270569b611a,
        type: 3}
      propertyPath: m_LocalScale.y
      value: 3.27
      objectReference: {fileID: 0}
    - target: {fileID: 2383259583250019338, guid: fa21cb0b4490f1940bf3b270569b611a,
        type: 3}
      propertyPath: m_Mesh
      value: 
      objectReference: {fileID: 1783978739445199337, guid: 8dad01b8d385dd747a1f2cf7e534bc9a,
        type: 3}
    - target: {fileID: 2383259583610774746, guid: fa21cb0b4490f1940bf3b270569b611a,
        type: 3}
      propertyPath: m_LocalRotation.x
      value: 0
      objectReference: {fileID: 0}
    - target: {fileID: 2383259583610774746, guid: fa21cb0b4490f1940bf3b270569b611a,
        type: 3}
      propertyPath: m_LocalRotation.y
      value: 0.7071068
      objectReference: {fileID: 0}
    - target: {fileID: 2383259583610774746, guid: fa21cb0b4490f1940bf3b270569b611a,
        type: 3}
      propertyPath: m_LocalRotation.z
      value: 0
      objectReference: {fileID: 0}
    - target: {fileID: 2383259583610774746, guid: fa21cb0b4490f1940bf3b270569b611a,
        type: 3}
      propertyPath: m_LocalRotation.w
      value: 0.7071068
      objectReference: {fileID: 0}
    - target: {fileID: 2383259583610774746, guid: fa21cb0b4490f1940bf3b270569b611a,
        type: 3}
      propertyPath: m_LocalEulerAnglesHint.y
      value: 90
      objectReference: {fileID: 0}
    m_RemovedComponents: []
  m_SourcePrefab: {fileID: 100100000, guid: fa21cb0b4490f1940bf3b270569b611a, type: 3}
