%YAML 1.1
%TAG !u! tag:unity3d.com,2011:
--- !u!1001 &1576374651795664107
PrefabInstance:
  m_ObjectHideFlags: 0
  serializedVersion: 2
  m_Modification:
    m_TransformParent: {fileID: 0}
    m_Modifications:
    - target: {fileID: 6384024860394708030, guid: 14b4a7dfbcca0e6419508e369b0ecdb6,
        type: 3}
      propertyPath: m_Name
      value: Tree_4 Variant
      objectReference: {fileID: 0}
    - target: {fileID: 7981439644497620525, guid: 14b4a7dfbcca0e6419508e369b0ecdb6,
        type: 3}
      propertyPath: m_LocalPosition.x
      value: 14.47
      objectReference: {fileID: 0}
    - target: {fileID: 7981439644497620525, guid: 14b4a7dfbcca0e6419508e369b0ecdb6,
        type: 3}
      propertyPath: m_LocalPosition.y
      value: 9.998684
      objectReference: {fileID: 0}
    - target: {fileID: 7981439644497620525, guid: 14b4a7dfbcca0e6419508e369b0ecdb6,
        type: 3}
      propertyPath: m_LocalPosition.z
      value: -38.3
      objectReference: {fileID: 0}
    - target: {fileID: 7981439644497620525, guid: 14b4a7dfbcca0e6419508e369b0ecdb6,
        type: 3}
      propertyPath: m_LocalRotation.x
      value: -0
      objectReference: {fileID: 0}
    - target: {fileID: 7981439644497620525, guid: 14b4a7dfbcca0e6419508e369b0ecdb6,
        type: 3}
      propertyPath: m_LocalRotation.y
      value: -0.8832484
      objectReference: {fileID: 0}
    - target: {fileID: 7981439644497620525, guid: 14b4a7dfbcca0e6419508e369b0ecdb6,
        type: 3}
      propertyPath: m_LocalRotation.z
      value: -0
      objectReference: {fileID: 0}
    - target: {fileID: 7981439644497620525, guid: 14b4a7dfbcca0e6419508e369b0ecdb6,
        type: 3}
      propertyPath: m_LocalRotation.w
      value: 0.46890548
      objectReference: {fileID: 0}
    - target: {fileID: 7981439644497620525, guid: 14b4a7dfbcca0e6419508e369b0ecdb6,
        type: 3}
      propertyPath: m_RootOrder
      value: 0
      objectReference: {fileID: 0}
    - target: {fileID: 7981439644497620525, guid: 14b4a7dfbcca0e6419508e369b0ecdb6,
        type: 3}
      propertyPath: m_LocalEulerAnglesHint.x
      value: 0
      objectReference: {fileID: 0}
    - target: {fileID: 7981439644497620525, guid: 14b4a7dfbcca0e6419508e369b0ecdb6,
        type: 3}
      propertyPath: m_LocalEulerAnglesHint.y
      value: -124.073006
      objectReference: {fileID: 0}
    - target: {fileID: 7981439644497620525, guid: 14b4a7dfbcca0e6419508e369b0ecdb6,
        type: 3}
      propertyPath: m_LocalEulerAnglesHint.z
      value: 0
      objectReference: {fileID: 0}
    - target: {fileID: 5101370655118565288, guid: 14b4a7dfbcca0e6419508e369b0ecdb6,
        type: 3}
      propertyPath: m_IsActive
      value: 0
      objectReference: {fileID: 0}
    - target: {fileID: 8908395513719692202, guid: 14b4a7dfbcca0e6419508e369b0ecdb6,
        type: 3}
      propertyPath: m_LocalRotation.y
      value: -0.40381575
      objectReference: {fileID: 0}
    - target: {fileID: 8908395513719692202, guid: 14b4a7dfbcca0e6419508e369b0ecdb6,
        type: 3}
      propertyPath: m_LocalRotation.w
      value: 0.9148404
      objectReference: {fileID: 0}
    - target: {fileID: 8908395513719692202, guid: 14b4a7dfbcca0e6419508e369b0ecdb6,
        type: 3}
      propertyPath: m_LocalPosition.x
      value: -2.44
      objectReference: {fileID: 0}
    - target: {fileID: 8908395513719692202, guid: 14b4a7dfbcca0e6419508e369b0ecdb6,
        type: 3}
      propertyPath: m_LocalPosition.y
      value: 3.63
      objectReference: {fileID: 0}
    - target: {fileID: 8908395513719692202, guid: 14b4a7dfbcca0e6419508e369b0ecdb6,
        type: 3}
      propertyPath: m_LocalPosition.z
      value: 0.87
      objectReference: {fileID: 0}
    - target: {fileID: 8908395513719692202, guid: 14b4a7dfbcca0e6419508e369b0ecdb6,
        type: 3}
      propertyPath: m_LocalScale.x
      value: 0.65
      objectReference: {fileID: 0}
    - target: {fileID: 8908395513719692202, guid: 14b4a7dfbcca0e6419508e369b0ecdb6,
        type: 3}
      propertyPath: m_LocalScale.y
      value: 0.65
      objectReference: {fileID: 0}
    - target: {fileID: 8908395513719692202, guid: 14b4a7dfbcca0e6419508e369b0ecdb6,
        type: 3}
      propertyPath: m_LocalScale.z
      value: 0.65
      objectReference: {fileID: 0}
    - target: {fileID: 8908395513719692202, guid: 14b4a7dfbcca0e6419508e369b0ecdb6,
        type: 3}
      propertyPath: m_LocalEulerAnglesHint.y
      value: -47.634003
      objectReference: {fileID: 0}
    m_RemovedComponents: []
  m_SourcePrefab: {fileID: 100100000, guid: 14b4a7dfbcca0e6419508e369b0ecdb6, type: 3}
--- !u!4 &8873126410612753094 stripped
Transform:
  m_CorrespondingSourceObject: {fileID: 7981439644497620525, guid: 14b4a7dfbcca0e6419508e369b0ecdb6,
    type: 3}
  m_PrefabInstance: {fileID: 1576374651795664107}
  m_PrefabAsset: {fileID: 0}
--- !u!1001 &4430510130716365180
PrefabInstance:
  m_ObjectHideFlags: 0
  serializedVersion: 2
  m_Modification:
    m_TransformParent: {fileID: 8873126410612753094}
    m_Modifications:
    - target: {fileID: 3107628493005309970, guid: bc2c1f9637bfbe049bf1814c853110b0,
        type: 3}
      propertyPath: m_Convex
      value: 1
      objectReference: {fileID: 0}
    - target: {fileID: 610628681435628172, guid: bc2c1f9637bfbe049bf1814c853110b0,
        type: 3}
      propertyPath: m_Name
      value: cloud2 (1)
      objectReference: {fileID: 0}
    - target: {fileID: 9109623837864633411, guid: bc2c1f9637bfbe049bf1814c853110b0,
        type: 3}
      propertyPath: m_LocalPosition.x
      value: 0
      objectReference: {fileID: 0}
    - target: {fileID: 9109623837864633411, guid: bc2c1f9637bfbe049bf1814c853110b0,
        type: 3}
      propertyPath: m_LocalPosition.y
      value: 7.29
      objectReference: {fileID: 0}
    - target: {fileID: 9109623837864633411, guid: bc2c1f9637bfbe049bf1814c853110b0,
        type: 3}
      propertyPath: m_LocalPosition.z
      value: 0
      objectReference: {fileID: 0}
    - target: {fileID: 9109623837864633411, guid: bc2c1f9637bfbe049bf1814c853110b0,
        type: 3}
      propertyPath: m_LocalRotation.x
      value: 0.1358869
      objectReference: {fileID: 0}
    - target: {fileID: 9109623837864633411, guid: bc2c1f9637bfbe049bf1814c853110b0,
        type: 3}
      propertyPath: m_LocalRotation.y
      value: 0.84470785
      objectReference: {fileID: 0}
    - target: {fileID: 9109623837864633411, guid: bc2c1f9637bfbe049bf1814c853110b0,
        type: 3}
      propertyPath: m_LocalRotation.z
      value: 0.06224105
      objectReference: {fileID: 0}
    - target: {fileID: 9109623837864633411, guid: bc2c1f9637bfbe049bf1814c853110b0,
        type: 3}
      propertyPath: m_LocalRotation.w
      value: 0.51393527
      objectReference: {fileID: 0}
    - target: {fileID: 9109623837864633411, guid: bc2c1f9637bfbe049bf1814c853110b0,
        type: 3}
      propertyPath: m_RootOrder
      value: 3
      objectReference: {fileID: 0}
    - target: {fileID: 9109623837864633411, guid: bc2c1f9637bfbe049bf1814c853110b0,
        type: 3}
      propertyPath: m_LocalEulerAnglesHint.x
      value: 1.978
      objectReference: {fileID: 0}
    - target: {fileID: 9109623837864633411, guid: bc2c1f9637bfbe049bf1814c853110b0,
        type: 3}
      propertyPath: m_LocalEulerAnglesHint.y
      value: 117.663
      objectReference: {fileID: 0}
    - target: {fileID: 9109623837864633411, guid: bc2c1f9637bfbe049bf1814c853110b0,
        type: 3}
      propertyPath: m_LocalEulerAnglesHint.z
      value: 17.081001
      objectReference: {fileID: 0}
    - target: {fileID: 9109623837864633411, guid: bc2c1f9637bfbe049bf1814c853110b0,
        type: 3}
      propertyPath: m_LocalScale.x
      value: 1.2376356
      objectReference: {fileID: 0}
    - target: {fileID: 9109623837864633411, guid: bc2c1f9637bfbe049bf1814c853110b0,
        type: 3}
      propertyPath: m_LocalScale.y
      value: 1.2376356
      objectReference: {fileID: 0}
    - target: {fileID: 9109623837864633411, guid: bc2c1f9637bfbe049bf1814c853110b0,
        type: 3}
      propertyPath: m_LocalScale.z
      value: 1.2376356
      objectReference: {fileID: 0}
    m_RemovedComponents: []
  m_SourcePrefab: {fileID: 100100000, guid: bc2c1f9637bfbe049bf1814c853110b0, type: 3}
